\relax 
\select@language{english}
\@writefile{toc}{\select@language{english}}
\@writefile{lof}{\select@language{english}}
\@writefile{lot}{\select@language{english}}
\@writefile{toc}{\contentsline {section}{\numberline {1}Testing the correctness}{1}}
\@writefile{lof}{\contentsline {figure}{\numberline {1}{\ignorespaces Testing results for matching one order.}}{1}}
\newlabel{pic1}{{1}{1}}
\@writefile{toc}{\contentsline {section}{\numberline {2}Testing the scalability}{2}}
\@writefile{toc}{\contentsline {subsection}{\numberline {2.1}Results}{2}}
\@writefile{lof}{\contentsline {figure}{\numberline {2}{\ignorespaces Execution time per function with default thread number.}}{2}}
\newlabel{pic2}{{2}{2}}
\@writefile{lof}{\contentsline {figure}{\numberline {3}{\ignorespaces Execution time per function with thread number = 10.}}{3}}
\newlabel{pic3}{{3}{3}}
\@writefile{toc}{\contentsline {subsection}{\numberline {2.2}Analysis}{4}}
\@writefile{toc}{\contentsline {subsubsection}{\numberline {2.2.1}Time portion analysis}{4}}
\@writefile{lof}{\contentsline {figure}{\numberline {4}{\ignorespaces Execution time per function with thread number = 50.}}{4}}
\newlabel{pic4}{{4}{4}}
\@writefile{toc}{\contentsline {subsubsection}{\numberline {2.2.2}Vertical comparison II}{5}}
\@writefile{toc}{\contentsline {subsubsection}{\numberline {2.2.3}Vertical comparison II}{5}}
